2264745529	2264745529	100.000	771	0	0	1	771	1	771	0.0	1599	771	771	771	771
2264745529	2264885743	46.875	288	138	7	490	768	116	397	1.44e-73	237	771	401	135	172
2264745529	2506382057	34.615	286	123	10	490	771	734	959	2.31e-35	135	771	964	99	135
2264745529	2501546999	32.155	283	134	9	491	770	416	643	1.52e-32	125	771	647	91	127
2264745529	2501546999	26.519	181	114	4	59	237	5	168	8.52e-10	53.1	771	647	48	76
2264745529	2509048660	34.507	284	127	11	493	768	518	750	1.07e-31	123	771	753	98	134
2264745529	2509048660	30.921	152	78	5	623	769	192	321	1.20e-07	46.2	771	753	47	60
2264745529	2507116219	34.737	285	142	9	492	770	676	922	1.64e-31	123	771	928	99	129
2264745529	2509048663	33.916	286	112	11	493	767	641	860	1.91e-29	116	771	864	97	126
2264745529	2509048663	32.967	91	44	3	622	711	298	372	2.65e-07	45.1	771	864	30	40
2264745529	2503246113	37.306	193	91	6	598	770	833	1015	1.07e-23	98.2	771	1026	72	91
2264745529	2503246113	27.632	76	40	1	491	566	685	745	1.87e-05	38.9	771	1026	21	36
2264745529	2505784793	37.853	177	84	6	595	768	11	164	4.34e-23	88.6	771	171	67	83
2264745529	2507116223	28.920	287	149	10	496	770	642	885	5.46e-19	82.8	771	891	83	111
2264745529	2506717454	28.519	270	128	10	540	767	810	1056	1.85e-14	68.6	771	1061	77	101
2264764977	2264764977	100.000	241	0	0	1	241	1	241	0.0	495	241	241	241	241
2264772851	2264772851	100.000	386	0	0	1	386	1	386	0.0	789	386	386	386	386
2264772851	2505395492	58.915	387	128	6	9	386	5	369	9.19e-151	423	386	369	228	273
2264772851	2264871781	35.938	64	35	1	325	382	726	789	1.07e-04	35.4	386	790	23	27
2264871781	2264871781	100.000	790	0	0	1	790	1	790	0.0	1608	790	790	790	790
2264871781	2505395492	38.710	62	32	1	728	789	310	365	8.37e-07	43.1	790	369	24	33
2264871781	2505395492	29.348	184	85	11	575	740	101	257	3.61e-04	34.7	790	369	54	73
2264871781	2264772851	35.938	64	35	1	726	789	325	382	2.31e-04	35.0	790	386	23	27
2264885743	2264885743	100.000	401	0	0	1	401	1	401	0.0	829	401	401	401	401
2264885743	2264745529	46.875	288	138	7	116	397	490	768	7.49e-74	237	401	771	135	172
2264885743	2506382057	34.139	331	149	7	75	401	695	960	1.38e-45	159	401	964	113	153
2264885743	2501546999	36.644	292	124	6	109	397	408	641	2.48e-45	157	401	647	107	131
2264885743	2509048663	39.384	292	111	10	113	400	635	864	2.04e-42	150	401	864	115	137
2264885743	2509048663	25.128	195	116	4	162	351	213	382	4.36e-07	43.1	401	864	49	64
2264885743	2509048660	37.413	286	125	8	119	400	518	753	7.67e-41	145	401	753	107	139
2264885743	2509048660	34.146	82	42	3	253	334	192	261	5.35e-06	39.7	401	753	28	40
2264885743	2505784793	39.344	183	88	5	221	401	7	168	3.94e-31	109	401	171	72	96
2264885743	2503246113	39.062	192	84	6	228	397	833	1013	1.73e-28	109	401	1026	75	90
2264885743	2503246113	29.592	98	55	2	94	191	664	747	3.24e-07	43.5	401	1026	29	44
2264885743	2507116219	31.206	282	151	7	119	396	677	919	2.51e-28	108	401	928	88	120
2264885743	2507116223	26.706	337	177	10	84	396	592	882	1.86e-17	75.9	401	891	90	127
2264885743	2506717454	29.773	309	160	13	121	400	780	1060	3.15e-17	75.1	401	1061	92	119
2264946785	2264946785	100.000	256	0	0	1	256	1	256	0.0	518	256	256	256	256
2264951372	2264951372	100.000	255	0	0	1	255	1	255	0.0	530	255	255	255	255
2264967961	2264967961	100.000	295	0	0	1	295	1	295	0.0	609	295	295	295	295
2265014200	2265014200	100.000	142	0	0	1	142	1	142	1.33e-104	287	142	142	142	142
2265014763	2265014763	100.000	651	0	0	1	651	1	651	0.0	1340	651	651	651	651
2265015769	2265015769	100.000	198	0	0	1	198	1	198	1.75e-144	392	198	198	198	198
2265015888	2265015888	100.000	235	0	0	1	235	1	235	7.64e-180	485	235	235	235	235
2265023109	2265023109	100.000	198	0	0	1	198	1	198	1.37e-148	403	198	198	198	198
2265025676	2265025676	100.000	254	0	0	1	254	1	254	0.0	524	254	254	254	254
2265031363	2265031363	100.000	359	0	0	1	359	1	359	0.0	722	359	359	359	359
2265095027	2265095027	100.000	352	0	0	1	352	1	352	0.0	721	352	352	352	352
2501411068	2501411068	100.000	121	0	0	1	121	1	121	1.16e-91	253	121	121	121	121
2501411068	2501411069	55.462	119	51	1	1	119	1	117	4.03e-46	137	121	122	66	84
2501411068	2504719818	38.462	65	36	1	55	119	68	128	8.22e-09	42.4	121	130	25	33
2501411068	2508533817	38.889	54	29	1	66	119	128	177	1.10e-07	40.0	121	179	21	31
2501411068	2508533818	50.000	30	15	0	89	118	145	174	1.24e-04	31.6	121	177	15	19
2501411069	2501411069	100.000	122	0	0	1	122	1	122	1.87e-92	254	122	122	122	122
2501411069	2501411068	55.462	119	51	1	1	117	1	119	4.07e-46	137	122	121	66	84
2501411069	2504719818	37.500	64	38	1	55	118	68	129	5.46e-10	45.8	122	130	24	33
2501411069	2508533817	31.325	83	35	2	55	117	97	177	1.51e-06	37.0	122	179	26	37
2501411069	2504719817	30.645	62	41	1	54	115	142	201	2.97e-04	30.4	122	206	19	27
2501411069	2508533818	37.209	43	25	1	74	116	134	174	3.96e-04	30.0	122	177	16	24
2501546999	2501546999	100.000	647	0	0	1	647	1	647	0.0	1347	647	647	647	647
2501546999	2506382057	59.410	271	104	2	374	643	693	958	1.44e-108	342	647	964	161	196
2501546999	2505784793	61.310	168	60	4	477	642	1	165	3.97e-62	196	647	171	103	120
2501546999	2503246113	54.255	188	55	3	486	643	829	1015	4.36e-57	200	647	1026	102	116
2501546999	2503246113	43.827	162	70	4	328	485	608	752	1.18e-31	122	647	1026	71	90
2501546999	2509048660	43.882	237	116	2	418	641	518	750	6.15e-56	194	647	753	104	132
2501546999	2509048660	36.765	68	35	2	515	574	192	259	3.00e-05	38.1	647	753	25	30
2501546999	2509048663	43.404	235	118	3	412	640	635	860	8.67e-55	192	647	864	102	132
2501546999	2509048663	25.641	195	106	7	418	577	176	366	4.24e-07	43.9	647	864	50	72
2501546999	2264885743	36.644	292	124	6	408	641	109	397	4.00e-45	157	647	401	107	131
2501546999	2264745529	32.155	283	134	9	416	643	491	770	1.28e-32	125	647	771	91	127
2501546999	2264745529	26.519	181	114	4	5	168	59	237	7.15e-10	53.1	647	771	48	76
2501546999	2507116219	32.692	260	141	9	409	641	668	920	2.16e-31	122	647	928	85	129
2501546999	2507116223	30.841	214	121	7	448	641	677	883	2.22e-22	93.2	647	891	66	102
2501546999	2506717454	30.000	280	132	11	421	640	781	1056	1.13e-17	78.2	647	1061	84	114
2501546999	2506753388	22.566	226	150	6	2	220	39	246	4.29e-10	53.5	647	563	51	103
2501712195	2501712195	100.000	2010	0	0	1	2010	1	2010	0.0	4085	2010	2010	2010	2010
2501712195	2509056931	30.739	771	488	18	292	1047	213	952	2.42e-109	372	2010	1250	237	395
2501712195	2509056931	57.647	85	35	1	1765	1848	1162	1246	1.30e-22	97.1	2010	1250	49	59
2501712195	2509056931	37.179	78	44	1	16	93	126	198	2.20e-10	57.0	2010	1250	29	42
2501712195	2508525513	34.884	258	102	10	1778	2010	25	241	1.04e-29	111	2010	241	90	119
2501712195	2509056928	51.948	77	36	1	1935	2010	101	177	1.45e-20	82.8	2010	177	40	51
2501712195	2508525510	44.565	92	50	1	3	93	213	304	1.92e-16	75.1	2010	411	41	56
2501712195	2508525510	45.977	87	46	1	1925	2010	80	166	2.39e-14	68.6	2010	411	40	51
2501762584	2501762584	100.000	412	0	0	1	412	1	412	0.0	832	412	412	412	412
2501762585	2501762585	100.000	217	0	0	1	217	1	217	4.37e-163	441	217	217	217	217
2503246113	2503246113	100.000	1026	0	0	1	1026	1	1026	0.0	2114	1026	1026	1026	1026
2503246113	2501546999	54.255	188	55	3	829	1015	486	643	5.21e-57	200	1026	647	102	116
2503246113	2501546999	43.827	162	70	4	608	752	328	485	1.65e-31	122	1026	647	71	90
2503246113	2506382057	51.872	187	58	4	829	1013	800	956	1.24e-53	194	1026	964	97	118
2503246113	2506382057	52.778	108	44	2	645	752	699	799	1.16e-28	115	1026	964	57	76
2503246113	2505784793	49.231	195	63	5	829	1020	10	171	3.28e-53	175	1026	171	96	112
2503246113	2509048663	42.246	187	81	4	829	1013	700	861	1.18e-35	137	1026	864	79	98
2503246113	2509048663	43.636	55	29	1	682	734	636	690	9.58e-09	50.1	1026	864	24	34
2503246113	2509048663	32.222	90	55	2	858	947	299	382	6.82e-06	40.8	1026	864	29	36
2503246113	2509048660	40.761	184	86	3	816	997	571	733	2.17e-34	132	1026	753	75	93
2503246113	2509048660	42.857	49	26	1	687	733	518	566	1.19e-06	43.5	1026	753	21	31
2503246113	2509048660	37.838	74	41	2	858	930	192	261	1.86e-06	42.7	1026	753	28	36
2503246113	2507116219	36.364	198	94	6	820	1012	749	919	1.22e-28	114	1026	928	72	99
2503246113	2264885743	39.062	192	84	6	833	1013	228	397	3.39e-28	109	1026	401	75	90
2503246113	2264885743	29.592	98	55	2	664	747	94	191	8.73e-07	43.5	1026	401	29	44
2503246113	2264745529	37.306	193	91	6	833	1015	598	770	1.17e-23	98.6	1026	771	72	91
2503246113	2264745529	27.632	76	40	1	685	745	491	566	2.46e-05	39.3	1026	771	21	36
2503246113	2506717454	32.273	220	101	10	820	1013	860	1057	3.62e-12	61.6	1026	1061	71	87
2503246113	2507116223	28.649	185	98	7	831	1012	729	882	2.05e-11	58.9	1026	891	53	74
2504719817	2504719817	100.000	206	0	0	1	206	1	206	6.41e-156	422	206	206	206	206
2504719817	2508533817	35.079	191	98	4	13	202	11	176	1.25e-24	87.8	206	179	67	85
2504719817	2508533818	34.359	195	94	7	12	201	8	173	3.45e-22	81.3	206	177	67	88
2504719817	2504719818	46.774	62	33	0	144	205	69	130	1.15e-11	52.0	206	130	29	32
2504719817	2504719836	61.905	42	15	1	165	205	150	191	1.27e-08	44.7	206	192	26	30
2504719818	2504719818	100.000	130	0	0	1	130	1	130	2.79e-100	275	130	130	130	130
2504719818	2504719836	53.077	130	55	3	2	130	67	191	5.11e-38	119	130	192	69	84
2504719818	2508533818	33.784	148	69	6	4	127	32	174	5.83e-17	65.1	130	177	50	71
2504719818	2508533817	29.452	146	76	4	6	128	36	177	2.12e-12	53.1	130	179	43	64
2504719818	2504719817	46.774	62	33	0	69	130	144	205	7.28e-12	52.0	130	206	29	32
2504719818	2501411069	37.500	64	38	1	68	129	55	118	5.82e-10	45.8	130	122	24	33
2504719818	2501411068	38.462	65	36	1	68	128	55	119	8.83e-09	42.4	130	121	25	33
2504719836	2504719836	100.000	192	0	0	1	192	1	192	9.18e-146	395	192	192	192	192
2504719836	2504719818	53.077	130	55	3	67	191	2	130	4.32e-43	133	192	130	69	84
2504719836	2504719817	61.905	42	15	1	150	191	165	205	1.14e-11	53.1	192	206	26	30
2504719836	2508533818	29.139	151	78	7	64	188	27	174	2.00e-06	37.7	192	177	44	61
2505395492	2505395492	100.000	369	0	0	1	369	1	369	0.0	758	369	369	369	369
2505395492	2264772851	58.915	387	128	6	5	369	9	386	8.78e-151	423	369	386	228	273
2505395492	2264871781	38.710	62	32	1	310	365	728	789	4.05e-07	42.7	369	790	24	33
2505395492	2264871781	29.348	184	85	11	101	257	575	740	2.08e-04	34.3	369	790	54	73
2505395492	2506382057	23.853	109	61	5	87	191	804	894	8.78e-05	35.4	369	964	26	46
2505784793	2505784793	100.000	171	0	0	1	171	1	171	7.15e-132	358	171	171	171	171
2505784793	2501546999	61.310	168	60	4	1	165	477	642	1.05e-62	196	171	647	103	120
2505784793	2506382057	56.471	170	68	4	4	169	794	961	5.44e-60	192	171	964	96	113
2505784793	2503246113	49.231	195	63	5	10	171	829	1020	7.60e-54	174	171	1026	96	112
2505784793	2509048663	45.763	177	83	6	1	167	691	864	2.30e-38	130	171	864	81	99
2505784793	2509048663	28.188	149	67	6	38	168	298	424	1.60e-06	38.5	171	864	42	50
2505784793	2509048660	44.371	151	67	3	12	146	584	733	6.99e-35	120	171	753	67	85
2505784793	2509048660	35.211	71	35	2	39	99	192	261	1.41e-05	35.8	171	753	25	32
2505784793	2264885743	39.344	183	88	5	7	168	221	401	1.68e-31	109	171	401	72	96
2505784793	2507116219	38.012	171	88	5	12	168	758	924	1.39e-28	102	171	928	65	88
2505784793	2264745529	37.853	177	84	6	11	164	595	768	9.62e-24	88.6	171	771	67	83
2505784793	2507116223	33.333	168	94	7	11	168	728	887	2.23e-16	67.4	171	891	56	74
2505784793	2506717454	30.601	183	92	8	14	163	876	1056	2.74e-14	61.6	171	1061	56	80
2506382057	2506382057	100.000	964	0	0	1	964	1	964	0.0	2010	964	964	964	964
2506382057	2501546999	59.410	271	104	2	693	958	374	643	1.68e-108	342	964	647	161	196
2506382057	2505784793	56.322	174	68	5	791	961	1	169	2.64e-59	192	964	171	98	116
2506382057	2509048663	46.983	232	100	7	737	956	641	861	2.29e-54	195	964	864	109	136
2506382057	2509048663	27.333	150	80	5	749	892	240	366	1.07e-04	37.0	964	864	41	55
2506382057	2503246113	51.872	187	58	4	800	956	829	1013	1.35e-53	194	964	1026	97	118
2506382057	2503246113	43.478	161	69	4	660	799	593	752	4.17e-29	116	964	1026	70	94
2506382057	2264885743	33.838	396	175	11	641	960	17	401	7.41e-50	173	964	401	134	182
2506382057	2509048660	42.017	238	115	5	737	956	518	750	3.02e-49	178	964	753	100	129
2506382057	2509048660	37.681	69	34	3	829	889	192	259	1.26e-05	40.0	964	753	26	37
2506382057	2264745529	34.615	286	123	10	734	959	490	771	2.79e-35	135	964	771	99	135
2506382057	2507116219	33.591	259	128	11	736	960	676	924	8.57e-31	121	964	928	87	124
2506382057	2507116223	31.373	255	140	11	730	960	644	887	6.33e-22	92.8	964	891	80	110
2506382057	2506717454	30.000	280	134	12	740	958	781	1059	6.90e-17	76.6	964	1061	84	115
2506382057	2505395492	23.853	109	61	5	804	894	87	191	2.20e-04	35.4	964	369	26	46
2506717454	2506717454	100.000	1061	0	0	1	1061	1	1061	0.0	2143	1061	1061	1061	1061
2506717454	2507116223	30.868	311	162	13	751	1056	620	882	2.27e-25	104	1061	891	96	140
2506717454	2501546999	30.000	280	132	11	781	1056	421	640	1.83e-17	78.2	1061	647	84	114
2506717454	2507116219	33.488	215	106	10	848	1056	736	919	3.15e-17	77.8	1061	928	72	97
2506717454	2264885743	29.773	309	160	13	780	1060	121	400	9.02e-17	75.1	1061	401	92	119
2506717454	2506382057	30.000	280	134	12	781	1059	740	958	1.18e-16	76.3	1061	964	84	115
2506717454	2509048660	28.854	253	123	8	781	1028	521	721	2.16e-15	72.0	1061	753	73	101
2506717454	2264745529	28.519	270	128	10	810	1056	540	767	2.28e-14	68.6	1061	771	77	101
2506717454	2505784793	30.601	183	92	8	876	1056	14	163	1.80e-13	61.2	1061	171	56	80
2506717454	2503246113	32.273	220	101	10	860	1057	820	1013	3.24e-12	61.6	1061	1026	71	87
2506717454	2509048663	27.660	282	137	10	781	1058	644	862	1.41e-10	56.2	1061	864	78	103
2506753388	2506753388	100.000	563	0	0	1	563	1	563	0.0	1151	563	563	563	563
2506753388	2501546999	22.566	226	150	6	39	246	2	220	3.73e-10	53.5	563	647	51	103
2507116219	2507116219	100.000	928	0	0	1	928	1	928	0.0	1869	928	928	928	928
2507116219	2507116223	29.242	1002	513	42	7	928	6	891	1.02e-66	232	928	891	293	422
2507116219	2509048663	40.400	250	112	9	677	919	641	860	1.27e-35	136	928	864	101	128
2507116219	2509048663	36.709	79	41	2	783	860	297	367	3.52e-05	38.5	928	864	29	33
2507116219	2264745529	34.737	285	142	9	676	922	492	770	1.52e-31	123	928	771	99	129
2507116219	2501546999	32.819	259	140	9	669	920	410	641	3.45e-31	121	928	647	85	129
2507116219	2506382057	33.591	259	128	11	676	924	736	960	1.09e-30	121	928	964	87	124
2507116219	2509048660	33.858	254	139	7	675	919	516	749	1.70e-29	117	928	753	86	118
2507116219	2509048660	36.170	94	46	3	777	866	186	269	4.11e-06	41.6	928	753	34	41
2507116219	2503246113	36.364	198	94	6	749	919	820	1012	9.38e-29	115	928	1026	72	99
2507116219	2505784793	38.012	171	88	5	758	924	12	168	4.79e-28	103	928	171	65	88
2507116219	2264885743	31.206	282	151	7	677	919	119	396	7.12e-28	108	928	401	88	120
2507116219	2506717454	33.488	215	106	10	736	919	848	1056	2.78e-17	77.8	928	1061	72	97
2507116223	2507116223	100.000	891	0	0	1	891	1	891	0.0	1778	891	891	891	891
2507116223	2507116219	28.687	617	310	25	6	544	7	571	1.07e-33	130	891	928	177	260
2507116223	2507116219	40.000	195	91	5	720	891	737	928	1.36e-29	117	891	928	78	96
2507116223	2506717454	30.868	311	162	13	620	882	751	1056	1.74e-25	104	891	1061	96	140
2507116223	2501546999	30.841	214	121	7	677	883	448	641	2.78e-22	93.6	891	647	66	102
2507116223	2506382057	31.373	255	140	11	644	887	730	960	7.00e-22	92.8	891	964	80	110
2507116223	2264745529	28.920	287	149	10	642	885	496	770	5.74e-19	83.2	891	771	83	111
2507116223	2264885743	26.706	337	177	10	592	882	84	396	4.76e-17	75.5	891	401	90	127
2507116223	2505784793	33.333	168	94	7	728	887	11	168	1.09e-15	67.4	891	171	56	74
2507116223	2509048663	31.797	217	108	10	678	882	672	860	6.18e-15	70.1	891	864	69	93
2507116223	2509048660	28.916	249	137	9	654	882	521	749	2.94e-14	67.8	891	753	72	99
2507116223	2503246113	28.649	185	98	7	729	882	831	1012	2.17e-11	58.5	891	1026	53	74
2508525510	2508525510	100.000	411	0	0	1	411	1	411	0.0	808	411	411	411	411
2508525510	2508525513	52.222	90	41	2	78	166	153	241	2.94e-19	78.2	411	241	47	59
2508525510	2509056928	35.135	148	77	6	23	166	45	177	1.62e-18	74.7	411	177	52	72
2508525510	2501712195	44.565	92	50	1	213	304	3	93	3.06e-17	75.5	411	2010	41	56
2508525510	2501712195	45.455	88	47	1	79	166	1924	2010	3.15e-14	65.9	411	2010	40	51
2508525510	2509056931	43.529	85	47	1	232	316	127	210	1.01e-15	70.5	411	1250	37	53
2508525513	2508525513	100.000	241	0	0	1	241	1	241	0.0	489	241	241	241	241
2508525513	2501712195	34.630	257	102	10	26	241	1779	2010	1.84e-28	105	241	2010	89	118
2508525513	2508525510	54.545	77	34	1	166	241	90	166	3.00e-19	77.4	241	411	42	52
2508525513	2509056928	32.653	147	94	4	97	241	34	177	2.90e-12	55.1	241	177	48	60
2508525513	2509056931	50.000	70	24	4	25	89	1176	1239	4.52e-10	50.8	241	1250	35	40
2508533817	2508533817	100.000	179	0	0	1	179	1	179	5.49e-136	369	179	179	179	179
2508533817	2508533818	62.069	174	62	3	8	179	6	177	1.34e-69	201	179	177	108	122
2508533817	2504719817	35.079	191	98	4	11	176	13	202	1.09e-24	87.8	179	206	67	85
2508533817	2504719818	29.452	146	76	4	36	177	6	128	2.92e-12	53.1	179	130	43	64
2508533817	2501411068	38.889	54	29	1	128	177	66	119	1.63e-07	40.0	179	121	21	31
2508533817	2501411069	31.325	83	35	2	97	177	55	117	2.22e-06	37.0	179	122	26	37
2508533818	2508533818	100.000	177	0	0	1	177	1	177	3.63e-134	365	177	177	177	177
2508533818	2508533817	62.069	174	62	3	6	177	8	179	1.32e-69	201	177	179	108	122
2508533818	2504719817	34.359	195	94	7	8	173	12	201	2.96e-22	81.3	177	206	67	88
2508533818	2504719818	33.784	148	69	6	32	174	4	127	7.94e-17	65.1	177	130	50	71
2508533818	2501411068	50.000	30	15	0	145	174	89	118	1.82e-04	31.6	177	121	15	19
2508533818	2501411069	37.209	43	25	1	134	174	74	116	5.75e-04	30.0	177	122	16	24
2509048660	2509048660	100.000	753	0	0	1	753	1	753	0.0	1496	753	753	753	753
2509048660	2509048663	49.378	241	102	5	517	753	640	864	3.08e-57	201	753	864	119	141
2509048660	2509048663	69.048	42	13	0	711	752	7	48	4.90e-06	40.8	753	864	29	32
2509048660	2501546999	43.882	237	116	2	518	750	418	641	6.06e-56	194	753	647	104	132
2509048660	2501546999	26.012	173	89	6	93	259	435	574	1.47e-05	39.3	753	647	45	60
2509048660	2506382057	42.017	238	115	5	518	750	737	956	2.44e-49	178	753	964	100	129
2509048660	2506382057	37.681	69	34	3	192	259	829	889	8.86e-06	40.0	753	964	26	37
2509048660	2264885743	37.413	286	125	8	518	753	119	400	1.68e-40	145	753	401	107	139
2509048660	2264885743	26.966	178	100	8	109	261	162	334	4.19e-06	40.8	753	401	48	71
2509048660	2505784793	44.371	151	67	3	584	733	12	146	1.39e-34	121	753	171	67	85
2509048660	2505784793	35.211	71	35	2	192	261	39	99	4.79e-05	36.2	753	171	25	32
2509048660	2503246113	40.761	184	86	3	571	733	816	997	1.49e-34	132	753	1026	75	93
2509048660	2503246113	42.857	49	26	1	518	566	687	733	9.39e-07	43.1	753	1026	21	31
2509048660	2503246113	37.838	74	41	2	192	261	858	930	1.19e-06	42.7	753	1026	28	36
2509048660	2264745529	34.507	284	127	11	518	750	493	768	6.01e-32	124	753	771	98	134
2509048660	2264745529	30.921	152	78	5	192	321	623	769	6.81e-08	47.0	753	771	47	60
2509048660	2507116219	33.865	251	143	6	516	749	675	919	1.47e-29	116	753	928	85	117
2509048660	2507116219	29.944	177	80	8	109	269	718	866	8.53e-07	43.5	753	928	53	69
2509048660	2506717454	28.854	253	123	8	521	721	781	1028	2.05e-15	71.2	753	1061	73	101
2509048660	2507116223	28.916	249	137	9	521	749	654	882	3.32e-14	67.4	753	891	72	99
2509048663	2509048663	100.000	864	0	0	1	864	1	864	0.0	1690	864	864	864	864
2509048663	2509048660	36.444	793	401	22	125	864	11	753	8.44e-104	330	864	753	289	369
2509048663	2509048660	70.732	41	12	0	7	47	711	751	2.08e-11	58.5	864	753	29	32
2509048663	2501546999	40.996	261	138	4	611	861	387	641	4.13e-55	194	864	647	107	141
2509048663	2501546999	26.667	195	104	8	176	366	418	577	4.91e-08	47.4	864	647	52	75
2509048663	2501546999	45.455	44	24	0	7	50	602	645	6.74e-06	40.4	864	647	20	26
2509048663	2506382057	43.629	259	118	8	619	861	710	956	6.34e-55	197	864	964	113	146
2509048663	2506382057	47.619	42	22	0	5	46	915	956	4.15e-06	41.2	864	964	20	25
2509048663	2506382057	28.667	150	78	6	240	366	749	892	8.69e-06	40.4	864	964	43	57
2509048663	2264885743	38.750	320	130	10	607	864	85	400	5.55e-45	159	864	401	124	151
2509048663	2264885743	26.154	195	114	4	213	382	162	351	3.08e-08	47.8	864	401	51	66
2509048663	2264885743	45.455	44	24	0	5	48	356	399	5.47e-05	37.4	864	401	20	28
2509048663	2505784793	48.077	156	71	4	691	845	1	147	7.14e-39	134	864	171	75	90
2509048663	2505784793	36.047	86	49	3	299	384	39	118	5.29e-05	36.2	864	171	31	34
2509048663	2503246113	42.246	187	81	4	700	861	829	1013	8.89e-36	137	864	1026	79	98
2509048663	2503246113	26.667	150	96	3	550	690	590	734	2.02e-09	52.4	864	1026	40	63
2509048663	2503246113	32.222	90	55	2	299	382	858	947	7.61e-07	43.9	864	1026	29	36
2509048663	2507116219	40.400	250	112	9	641	860	677	919	3.24e-35	135	864	928	101	128
2509048663	2507116219	36.709	79	41	2	297	367	783	860	7.73e-06	40.4	864	928	29	33
2509048663	2264745529	33.798	287	113	11	641	861	493	768	1.34e-29	117	864	771	97	126
2509048663	2264745529	32.967	91	44	3	298	372	622	711	2.40e-08	48.5	864	771	30	40
2509048663	2264745529	51.282	39	19	0	8	46	730	768	8.92e-08	46.6	864	771	20	30
2509048663	2507116223	31.797	217	108	10	672	860	678	882	7.05e-15	69.7	864	891	69	93
2509048663	2507116223	40.816	49	26	1	9	57	846	891	0.001	33.9	864	891	20	27
2509048663	2506717454	27.660	282	137	10	644	862	781	1058	2.56e-10	55.1	864	1061	78	103
2509056928	2509056928	100.000	177	0	0	1	177	1	177	3.52e-134	365	177	177	177	177
2509056928	2501712195	51.948	77	36	1	101	177	1935	2010	2.59e-18	73.2	177	2010	40	50
2509056928	2508525510	33.333	144	74	6	51	177	28	166	7.65e-17	68.9	177	411	48	69
2509056928	2508525513	32.653	147	94	4	34	177	97	241	3.12e-12	54.7	177	241	48	60
2509056931	2509056931	100.000	1250	0	0	1	1250	1	1250	0.0	2549	1250	1250	1250	1250
2509056931	2501712195	30.296	812	517	20	213	993	292	1085	5.51e-112	379	1250	2010	246	415
2509056931	2501712195	63.235	68	25	0	1179	1246	1781	1848	8.35e-22	93.6	1250	2010	43	51
2509056931	2501712195	37.179	78	44	1	126	198	16	93	1.27e-10	57.0	1250	2010	29	42
2509056931	2508525510	43.529	85	47	1	127	210	232	316	3.53e-15	70.5	1250	411	37	53
2509056931	2508525513	50.000	70	24	4	1176	1239	25	89	3.14e-09	50.4	1250	241	35	40
