2264745529	2264885743	237
2264745529	2501546999	125
2264745529	2503246113	98.2
2264745529	2505784793	88.6
2264745529	2506382057	135
2264745529	2506717454	68.6
2264745529	2507116219	123
2264745529	2507116223	82.8
2264745529	2509048660	123
2264745529	2509048663	116
2264772851	2505395492	423
2264885743	2264745529	237
2264885743	2501546999	157
2264885743	2503246113	109
2264885743	2505784793	109
2264885743	2506382057	159
2264885743	2506717454	75.1
2264885743	2507116219	108
2264885743	2507116223	75.9
2264885743	2509048660	145
2264885743	2509048663	150
2501411068	2501411069	137
2501411069	2501411068	137
2501546999	2264745529	125
2501546999	2264885743	157
2501546999	2503246113	200
2501546999	2505784793	196
2501546999	2506382057	342
2501546999	2506717454	78.2
2501546999	2506753388	53.5
2501546999	2507116219	122
2501546999	2507116223	93.2
2501546999	2509048660	194
2501546999	2509048663	192
2501712195	2508525510	75.1
2501712195	2508525513	111
2501712195	2509056928	82.8
2501712195	2509056931	372
2503246113	2264745529	98.6
2503246113	2264885743	109
2503246113	2501546999	200
2503246113	2505784793	175
2503246113	2506382057	194
2503246113	2506717454	61.6
2503246113	2507116219	114
2503246113	2507116223	58.9
2503246113	2509048660	132
2503246113	2509048663	137
2504719817	2504719818	52.0
2504719817	2508533817	87.8
2504719817	2508533818	81.3
2504719818	2504719817	52.0
2504719818	2504719836	119
2504719818	2508533817	53.1
2504719818	2508533818	65.1
2504719836	2504719817	53.1
2504719836	2504719818	133
2505395492	2264772851	423
2505784793	2264745529	88.6
2505784793	2264885743	109
2505784793	2501546999	196
2505784793	2503246113	174
2505784793	2506382057	192
2505784793	2506717454	61.6
2505784793	2507116219	102
2505784793	2507116223	67.4
2505784793	2509048660	120
2505784793	2509048663	130
2506382057	2264745529	135
2506382057	2264885743	173
2506382057	2501546999	342
2506382057	2503246113	194
2506382057	2505784793	192
2506382057	2506717454	76.6
2506382057	2507116219	121
2506382057	2507116223	92.8
2506382057	2509048660	178
2506382057	2509048663	195
2506717454	2264745529	68.6
2506717454	2264885743	75.1
2506717454	2501546999	78.2
2506717454	2503246113	61.6
2506717454	2505784793	61.2
2506717454	2506382057	76.3
2506717454	2507116219	77.8
2506717454	2507116223	104
2506717454	2509048660	72.0
2506717454	2509048663	56.2
2506753388	2501546999	53.5
2507116219	2264745529	123
2507116219	2264885743	108
2507116219	2501546999	121
2507116219	2503246113	115
2507116219	2505784793	103
2507116219	2506382057	121
2507116219	2506717454	77.8
2507116219	2507116223	232
2507116219	2509048660	117
2507116219	2509048663	136
2507116223	2264745529	83.2
2507116223	2264885743	75.5
2507116223	2501546999	93.6
2507116223	2503246113	58.5
2507116223	2505784793	67.4
2507116223	2506382057	92.8
2507116223	2506717454	104
2507116223	2507116219	130
2507116223	2509048660	67.8
2507116223	2509048663	70.1
2508525510	2501712195	75.5
2508525510	2508525513	78.2
2508525510	2509056928	74.7
2508525510	2509056931	70.5
2508525513	2501712195	105
2508525513	2508525510	77.4
2508525513	2509056928	55.1
2508525513	2509056931	50.8
2508533817	2504719817	87.8
2508533817	2504719818	53.1
2508533817	2508533818	201
2508533818	2504719817	81.3
2508533818	2504719818	65.1
2508533818	2508533817	201
2509048660	2264745529	124
2509048660	2264885743	145
2509048660	2501546999	194
2509048660	2503246113	132
2509048660	2505784793	121
2509048660	2506382057	178
2509048660	2506717454	71.2
2509048660	2507116219	116
2509048660	2507116223	67.4
2509048660	2509048663	201
2509048663	2264745529	117
2509048663	2264885743	159
2509048663	2501546999	194
2509048663	2503246113	137
2509048663	2505784793	134
2509048663	2506382057	197
2509048663	2506717454	55.1
2509048663	2507116219	135
2509048663	2507116223	69.7
2509048663	2509048660	330
2509056928	2501712195	73.2
2509056928	2508525510	68.9
2509056928	2508525513	54.7
2509056931	2501712195	379
2509056931	2508525510	70.5
2509056931	2508525513	50.4
