## Metagenome	Full contig ID	Contig ID	Length	N genes	Gene ID	DGR Hit	Evalue	Bit Score
3300007360_subset	3300007360_subset_____Ga0104766_1000231	Ga0104766_1000231	75306	76	Ga0104766_1000231_46	Clean_DGR_clade_2	3.5e-115	381.5
3300007360_subset	3300007360_subset_____Ga0104766_1000291	Ga0104766_1000291	66401	68	Ga0104766_1000291_12	Clean_DGR_clade_1	1.5e-84	280.3
3300007360_subset	3300007360_subset_____Ga0104766_1000344	Ga0104766_1000344	60256	80	Ga0104766_1000344_10	Clean_DGR_clade_2	1.3e-132	438.9
3300007360_subset	3300007360_subset_____Ga0104766_1000479	Ga0104766_1000479	49294	71	Ga0104766_1000479_45	Clean_DGR_clade_1	8.9e-113	373.2
3300007360_subset	3300007360_subset_____Ga0104766_1000521	Ga0104766_1000521	46888	61	Ga0104766_1000521_8	Clean_DGR_clade_1	7.5e-133	439.3
3300007360_subset	3300007360_subset_____Ga0104766_1000544	Ga0104766_1000544	45653	49	Ga0104766_1000544_32	Clean_DGR_clade_2	1.1e-145	481.9
3300007360_subset	3300007360_subset_____Ga0104766_1000649	Ga0104766_1000649	40084	56	Ga0104766_1000649_52	Clean_DGR_clade_2	7.8e-146	482.4
3300007360_subset	3300007360_subset_____Ga0104766_1000782	Ga0104766_1000782	35681	49	Ga0104766_1000782_8	Clean_DGR_clade_2	2.3e-138	457.8
3300007360_subset	3300007360_subset_____Ga0104766_1000795	Ga0104766_1000795	35333	58	Ga0104766_1000795_51	Clean_DGR_clade_1	1.5e-72	240.9
3300007360_subset	3300007360_subset_____Ga0104766_1000925	Ga0104766_1000925	31605	48	Ga0104766_1000925_13	Clean_DGR_clade_2	8.8e-146	482.2
3300007360_subset	3300007360_subset_____Ga0104766_1001017	Ga0104766_1001017	29573	41	Ga0104766_1001017_26	Clean_DGR_clade_2	1.5e-126	419.0
3300007360_subset	3300007360_subset_____Ga0104766_1001032	Ga0104766_1001032	28972	21	Ga0104766_1001032_10	Clean_DGR_clade_5	4.6e-111	368.0
3300007360_subset	3300007360_subset_____Ga0104766_1001255	Ga0104766_1001255	24519	44	Ga0104766_1001255_11	Clean_DGR_clade_2	1.4e-102	340.0
3300007360_subset	3300007360_subset_____Ga0104766_1001472	Ga0104766_1001472	21418	27	Ga0104766_1001472_26	Clean_DGR_clade_2	3.2e-147	487.0
3300007360_subset	3300007360_subset_____Ga0104766_1002608	Ga0104766_1002608	12848	17	Ga0104766_1002608_4	Clean_DGR_clade_4	3.3e-113	374.5
3300007360_subset	3300007360_subset_____Ga0104766_1002688	Ga0104766_1002688	12423	24	Ga0104766_1002688_21	Clean_DGR_clade_2	9.9e-103	340.5
3300007360_subset	3300007360_subset_____Ga0104766_1002697	Ga0104766_1002697	12393	21	Ga0104766_1002697_11	Clean_DGR_clade_2	1.7e-121	402.3
3300007360_subset	3300007360_subset_____Ga0104766_1003311	Ga0104766_1003311	10140	15	Ga0104766_1003311_2	Clean_DGR_clade_2	6.1e-123	407.1
3300007360_subset	3300007360_subset_____Ga0104766_1005230	Ga0104766_1005230	6466	8	Ga0104766_1005230_7	Clean_DGR_clade_2	2.1e-122	405.3
3300007360_subset	3300007360_subset_____Ga0104766_1006201	Ga0104766_1006201	5468	8	Ga0104766_1006201_5	Clean_DGR_clade_5	9.5e-135	446.0
3300007360_subset	3300007360_subset_____Ga0104766_1023519	Ga0104766_1023519	1413	2	Ga0104766_1023519_2	Clean_DGR_clade_2	9.6e-63	208.9
